{
    "pathToConfig": "C:\\Users\\Chris\\Documents\\git\prog272-bennett\\AwsBasicS3\\config.json",
    "reallyWrite": true,
    "bucketName": "bucket01.elvenware.com",
    "folderToWalk": "C:\\tmp\\mysite",
    "s3RootFolder": "FilesNine",
    "createFolderToWalkOnS3": true,
    "createIndex": false,
    "filesToIgnore": [
        "Thumbs.db",
        ".gitignore",
        "MyFile.html"
    ]
}