[
	{
		"pathToPython": "C:\\dev\\Python33\\Python.exe",
		"copyFrom": "C:\\Users\\Chris\\Dropbox\\StackEdit",
		"copyTo": "C:\\tmp\\mysite", 
		"filesToCopy": ["DropBox", "MongoMark", "Test", "index"]
	}, {
		"pathToPython": "/usr/bin/python3.3",
		"copyFrom": "/home/adminuser/Dropbox/StackEdit",
		"copyTo": "/var/www",
		"filesToCopy": ["Sonnet1", "Sonnet2", "Sonnet3", "Sonnet4", "Sonnet5"]
	}, {
		"pathToPython": "C:\\Python\\Python33\\Python.exe",
		"copyFrom": "C:\\Src\\GoogleDrive\\Elvenware\\CloudNotes\\Assignments",
		"copyTo": "C:\\Users\\Public\\Documents\\TestSite\\Site",
		"filesToCopy": ["CopyToS3Part01", "CopyToS3Part02"]
	}, {
		"pathToPython": "C:\\Python\\Python33\\Python.exe",
		"copyFrom": "C:\\Users\\Charlie\\DropBox\\StackEdit",
		"copyTo": "C:\\Temp\\Site",
		"filesToCopy": ["DropBox", "MongoMark", "Test", "index"]
	}
]
