[
	{
		"pathToConfig": "/home/adminuser/git/prog272-bennett/AwsBasicS3/config.json",
		"reallyWrite": true,
		"bucketName": "chris_prog272",
		"folderToWalk": "/var/www",
		"s3RootFolder": "Shakespeare",
		"createFolderToWalkOnS3": true,
		"createIndex": true,
		"filesToIgnore": ["Thumbs.db", ".gitignore", "MyFile.html"]
	}, {
		"pathToConfig": "c:\\src\\config\\config.json",
		"reallyWrite": true,
		"bucketName": "bucket01.elvenware.com",
		"folderToWalk": "Files",
		"s3RootFolder": "FilesNine",
		"createFolderToWalkOnS3": true,
		"createIndex": true,
		"filesToIgnore": ["Thumbs.db", ".gitignore", "MyFile.html"]
	}, {
		"pathToConfig": "/home/charlie/config.json",
		"reallyWrite": true,
		"bucketName": "bucket01.elvenware.com",
		"folderToWalk": "CloudNotes",
		"s3RootFolder": "FilesFive",
		"createFolderToWalkOnS3": true,
		"createIndex": true,
		"filesToIgnore": ["Thumbs.db", ".gitignore", "MyFile.html"]
	}
]
